Take-home Exercise 2 – ISSS608-VAA
…
people_clean <- str_to_lower(people) %>%
  str_replace_all("[^a-z\\s]", "") %>%
  str_squish()

name_freq_sam <- tibble(name = people, clean_name = people_clean) %>%
  rowwise() %>%
  mutate(freq = str_count(text_clean_sam$full_text, fixed(clean_name))) %>%
  arrange(desc(freq))
name_freq_sam

# A tibble: 28 × 3
# Rowwise: 
   name                 clean_name            freq
   <chr>                <chr>                <int>
 1 The Lookout          the lookout              8
 2 Sam                  sam                      4
 3 Conservation Vessels conservation vessels     4
 4 Kelly                kelly                    3
 5 Elise                elise                    1
 6 Nadia Conti          nadia conti              0
 7 Liam Thorne          liam thorne              0
 8 Samantha Blake       samantha blake           0
 9 Davis                davis                    0
10 Rodriguez            rodriguez                0
# ℹ 18 more rows
…
text_clean_kelly <- connected_node_content_kelly %>%
  filter(!is.na(content)) %>%
  summarise(full_text = paste(content, collapse = " ")) %>%
  mutate(full_text = str_to_lower(full_text),
         full_text = str_replace_all(full_text, "[^a-z\\s]", ""),
         full_text = str_squish(full_text))

name_freq_kelly <- tibble(name = people, clean_name = people_clean) %>%
  rowwise() %>%
  mutate(freq = str_count(text_clean_kelly$full_text, fixed(clean_name))) %>%
  arrange(desc(freq))
name_freq_kelly

# A tibble: 28 × 3
# Rowwise: 
   name           clean_name      freq
   <chr>          <chr>          <int>
 1 Sam            sam                3
 2 Kelly          kelly              3
 3 Elise          elise              1
 4 Nadia Conti    nadia conti        0
 5 Liam Thorne    liam thorne        0
 6 Samantha Blake samantha blake     0
 7 Davis          davis              0
 8 Rodriguez      rodriguez          0
 9 Sailor Shift   sailor shift       0
10 Clepper Jensen clepper jensen     0
# ℹ 18 more rows
…
text_clean_nadia <- connected_node_content_nadia %>%
  filter(!is.na(content)) %>%
  summarise(full_text = paste(content, collapse = " ")) %>%
  mutate(full_text = str_to_lower(full_text),
         full_text = str_replace_all(full_text, "[^a-z\\s]", ""),
         full_text = str_squish(full_text))

name_freq_nadia<- tibble(name = people, clean_name = people_clean) %>%
  rowwise() %>%
  mutate(freq = str_count(text_clean_nadia$full_text, fixed(clean_name))) %>%
  arrange(desc(freq))
name_freq_nadia

# A tibble: 28 × 3
# Rowwise: 
   name                 clean_name            freq
   <chr>                <chr>                <int>
 1 Davis                davis                    8
 2 Elise                elise                    4
 3 Sam                  sam                      3
 4 Nadia Conti          nadia conti              3
 5 Sailor Shift         sailor shift             2
 6 The Middleman        the middleman            2
 7 Conservation Vessels conservation vessels     2
 8 V. Miesel Shipping   v miesel shipping        2
 9 Rodriguez            rodriguez                1
10 The Accountant       the accountant           1
# ℹ 18 more rows
…
text_clean_elise <- connected_node_content_elise %>%
  filter(!is.na(content)) %>%
  summarise(full_text = paste(content, collapse = " ")) %>%
  mutate(full_text = str_to_lower(full_text),
         full_text = str_replace_all(full_text, "[^a-z\\s]", ""),
         full_text = str_squish(full_text))

name_freq_elise <- tibble(name = people, clean_name = people_clean) %>%
  rowwise() %>%
  mutate(freq = str_count(text_clean_elise$full_text, fixed(clean_name))) %>%
  arrange(desc(freq))
name_freq_elise

# A tibble: 28 × 3
# Rowwise: 
   name                 clean_name            freq
   <chr>                <chr>                <int>
 1 Elise                elise                   11
 2 Sam                  sam                      3
 3 Conservation Vessels conservation vessels     2
 4 V. Miesel Shipping   v miesel shipping        2
 5 Kelly                kelly                    0
 6 Nadia Conti          nadia conti              0
 7 Liam Thorne          liam thorne              0
 8 Samantha Blake       samantha blake           0
 9 Davis                davis                    0
10 Rodriguez            rodriguez                0
# ℹ 18 more rows
…
text_clean_liam <- connected_node_content_liam %>%
  filter(!is.na(content)) %>%
  summarise(full_text = paste(content, collapse = " ")) %>%
  mutate(full_text = str_to_lower(full_text),
         full_text = str_replace_all(full_text, "[^a-z\\s]", ""),
         full_text = str_squish(full_text))

name_freq_liam <- tibble(name = people, clean_name = people_clean) %>%
  rowwise() %>%
  mutate(freq = str_count(text_clean_liam$full_text, fixed(clean_name))) %>%
  arrange(desc(freq))
name_freq_liam

# A tibble: 28 × 3
# Rowwise: 
   name                 clean_name            freq
   <chr>                <chr>                <int>
 1 Oceanus City Council oceanus city council     8
 2 Liam Thorne          liam thorne              6
 3 Sam                  sam                      5
 4 Conservation Vessels conservation vessels     3
 5 V. Miesel Shipping   v miesel shipping        3
 6 Elise                elise                    2
 7 Mrs. Money           mrs money                2
 8 The Middleman        the middleman            2
 9 Green Guardians      green guardians          2
10 Boss                 boss                     1
# ℹ 18 more rows
…
text_clean_samatha <- connected_node_content_samantha %>%
  filter(!is.na(content)) %>%
  summarise(full_text = paste(content, collapse = " ")) %>%
  mutate(full_text = str_to_lower(full_text),
         full_text = str_replace_all(full_text, "[^a-z\\s]", ""),
         full_text = str_squish(full_text))

name_freq_samantha <- tibble(name = people, clean_name = people_clean) %>%
  rowwise() %>%
  mutate(freq = str_count(text_clean_samatha$full_text, fixed(clean_name))) %>%
  arrange(desc(freq))
name_freq_samantha

# A tibble: 28 × 3
# Rowwise: 
   name                 clean_name            freq
   <chr>                <chr>                <int>
 1 Sam                  sam                     15
 2 Samantha Blake       samantha blake           9
 3 Oceanus City Council oceanus city council     5
 4 Sailor Shift         sailor shift             3
 5 Sailor Shifts Team   sailor shifts team       3
 6 Boss                 boss                     1
 7 Glitters Team        glitters team            1
 8 Kelly                kelly                    0
 9 Nadia Conti          nadia conti              0
10 Elise                elise                    0
# ℹ 18 more rows
…
text_clean_davis <- connected_node_content_davis %>%
  filter(!is.na(content)) %>%
  summarise(full_text = paste(content, collapse = " ")) %>%
  mutate(full_text = str_to_lower(full_text),
         full_text = str_replace_all(full_text, "[^a-z\\s]", ""),
         full_text = str_squish(full_text))

name_freq_davis <- tibble(name = people, clean_name = people_clean) %>%
  rowwise() %>%
  mutate(freq = str_count(text_clean_davis$full_text, fixed(clean_name))) %>%
  arrange(desc(freq))
name_freq_davis

# A tibble: 28 × 3
# Rowwise: 
   name                 clean_name            freq
   <chr>                <chr>                <int>
 1 Davis                davis                   37
 2 Rodriguez            rodriguez                5
 3 Boss                 boss                     5
 4 Conservation Vessels conservation vessels     3
 5 V. Miesel Shipping   v miesel shipping        3
 6 Small Fry            small fry                2
 7 Nadia Conti          nadia conti              1
 8 The Middleman        the middleman            1
 9 Sam                  sam                      0
10 Kelly                kelly                    0
# ℹ 18 more rows
…
text_clean_rodriquez <- connected_node_content_rodriquez %>%
  filter(!is.na(content)) %>%
  summarise(full_text = paste(content, collapse = " ")) %>%
  mutate(full_text = str_to_lower(full_text),
         full_text = str_replace_all(full_text, "[^a-z\\s]", ""),
         full_text = str_squish(full_text))

name_freq_rodriquez <- tibble(name = people, clean_name = people_clean) %>%
  rowwise() %>%
  mutate(freq = str_count(text_clean_rodriquez$full_text, fixed(clean_name))) %>%
  arrange(desc(freq))
name_freq_rodriquez

# A tibble: 28 × 3
# Rowwise: 
   name                 clean_name            freq
   <chr>                <chr>                <int>
 1 Rodriguez            rodriguez               16
 2 Davis                davis                    8
 3 Nadia Conti          nadia conti              2
 4 Boss                 boss                     2
 5 Conservation Vessels conservation vessels     2
 6 Sailor Shift         sailor shift             1
 7 Mrs. Money           mrs money                1
 8 Sam                  sam                      0
 9 Kelly                kelly                    0
10 Elise                elise                    0
# ℹ 18 more rows
…
text_clean_sailor <- connected_node_content_sailor %>%
  filter(!is.na(content)) %>%
  summarise(full_text = paste(content, collapse = " ")) %>%
  mutate(full_text = str_to_lower(full_text),
         full_text = str_replace_all(full_text, "[^a-z\\s]", ""),
         full_text = str_squish(full_text))

name_freq_sailor <- tibble(name = people, clean_name = people_clean) %>%
  rowwise() %>%
  mutate(freq = str_count(text_clean_sailor$full_text, fixed(clean_name))) %>%
  arrange(desc(freq))
name_freq_sailor

# A tibble: 28 × 3
# Rowwise: 
   name           clean_name      freq
   <chr>          <chr>          <int>
 1 Sam            sam                0
 2 Kelly          kelly              0
 3 Nadia Conti    nadia conti        0
 4 Elise          elise              0
 5 Liam Thorne    liam thorne        0
 6 Samantha Blake samantha blake     0
 7 Davis          davis              0
 8 Rodriguez      rodriguez          0
 9 Sailor Shift   sailor shift       0
10 Clepper Jensen clepper jensen     0
# ℹ 18 more rows
…
text_clean_clepper <- connected_node_content_clepper %>%
  filter(!is.na(content)) %>%
  summarise(full_text = paste(content, collapse = " ")) %>%
  mutate(full_text = str_to_lower(full_text),
         full_text = str_replace_all(full_text, "[^a-z\\s]", ""),
         full_text = str_squish(full_text))

name_freq_clepper <- tibble(name = people, clean_name = people_clean) %>%
  rowwise() %>%
  mutate(freq = str_count(text_clean_clepper$full_text, fixed(clean_name))) %>%
  arrange(desc(freq))
name_freq_clepper

# A tibble: 28 × 3
# Rowwise: 
   name                 clean_name            freq
   <chr>                <chr>                <int>
 1 Rodriguez            rodriguez               10
 2 Conservation Vessels conservation vessels     9
 3 Sam                  sam                      5
 4 V. Miesel Shipping   v miesel shipping        3
 5 Sailor Shift         sailor shift             2
 6 Oceanus City Council oceanus city council     2
 7 Sailor Shifts Team   sailor shifts team       2
 8 Kelly                kelly                    0
 9 Nadia Conti          nadia conti              0
10 Elise                elise                    0
# ℹ 18 more rows
…
text_clean_miranda <- connected_node_content_miranda %>%
  filter(!is.na(content)) %>%
  summarise(full_text = paste(content, collapse = " ")) %>%
  mutate(full_text = str_to_lower(full_text),
         full_text = str_replace_all(full_text, "[^a-z\\s]", ""),
         full_text = str_squish(full_text))

name_freq_miranda <- tibble(name = people, clean_name = people_clean) %>%
  rowwise() %>%
  mutate(freq = str_count(text_clean_miranda$full_text, fixed(clean_name))) %>%
  arrange(desc(freq))
name_freq_miranda

# A tibble: 28 × 3
# Rowwise: 
   name                 clean_name            freq
   <chr>                <chr>                <int>
 1 Rodriguez            rodriguez               10
 2 Conservation Vessels conservation vessels     9
 3 Sam                  sam                      5
 4 V. Miesel Shipping   v miesel shipping        3
 5 Sailor Shift         sailor shift             2
 6 Oceanus City Council oceanus city council     2
 7 Sailor Shifts Team   sailor shifts team       2
 8 Kelly                kelly                    0
 9 Nadia Conti          nadia conti              0
10 Elise                elise                    0
# ℹ 18 more rows
…
text_clean_intern <- connected_node_content_intern %>%
  filter(!is.na(content)) %>%
  summarise(full_text = paste(content, collapse = " ")) %>%
  mutate(full_text = str_to_lower(full_text),
         full_text = str_replace_all(full_text, "[^a-z\\s]", ""),
         full_text = str_squish(full_text))

name_freq_intern <- tibble(name = people, clean_name = people_clean) %>%
  rowwise() %>%
  mutate(freq = str_count(text_clean_intern$full_text, fixed(clean_name))) %>%
  arrange(desc(freq))
name_freq_intern

# A tibble: 28 × 3
# Rowwise: 
   name                 clean_name            freq
   <chr>                <chr>                <int>
 1 The Intern           the intern              34
 2 The Lookout          the lookout             28
 3 Mrs. Money           mrs money               24
 4 Conservation Vessels conservation vessels     9
 5 Sam                  sam                      2
 6 V. Miesel Shipping   v miesel shipping        2
 7 Kelly                kelly                    0
 8 Nadia Conti          nadia conti              0
 9 Elise                elise                    0
10 Liam Thorne          liam thorne              0
# ℹ 18 more rows
…
text_clean_lookout <- connected_node_content_lookout %>%
  filter(!is.na(content)) %>%
  summarise(full_text = paste(content, collapse = " ")) %>%
  mutate(full_text = str_to_lower(full_text),
         full_text = str_replace_all(full_text, "[^a-z\\s]", ""),
         full_text = str_squish(full_text))

name_freq_lookout <- tibble(name = people, clean_name = people_clean) %>%
  rowwise() %>%
  mutate(freq = str_count(text_clean_lookout$full_text, fixed(clean_name))) %>%
  arrange(desc(freq))
name_freq_lookout

# A tibble: 28 × 3
# Rowwise: 
   name                 clean_name            freq
   <chr>                <chr>                <int>
 1 The Lookout          the lookout             39
 2 The Intern           the intern              17
 3 Conservation Vessels conservation vessels     8
 4 Mrs. Money           mrs money                3
 5 Green Guardians      green guardians          3
 6 Sam                  sam                      2
 7 Kelly                kelly                    0
 8 Nadia Conti          nadia conti              0
 9 Elise                elise                    0
10 Liam Thorne          liam thorne              0
# ℹ 18 more rows
…
text_clean_accountant <- connected_node_content_accountant %>%
  filter(!is.na(content)) %>%
  summarise(full_text = paste(content, collapse = " ")) %>%
  mutate(full_text = str_to_lower(full_text),
         full_text = str_replace_all(full_text, "[^a-z\\s]", ""),
         full_text = str_squish(full_text))

name_freq_accountant <- tibble(name = people, clean_name = people_clean) %>%
  rowwise() %>%
  mutate(freq = str_count(text_clean_accountant$full_text, fixed(clean_name))) %>%
  arrange(desc(freq))
name_freq_accountant

# A tibble: 28 × 3
# Rowwise: 
   name                 clean_name            freq
   <chr>                <chr>                <int>
 1 The Accountant       the accountant           6
 2 The Middleman        the middleman            6
 3 Boss                 boss                     5
 4 Conservation Vessels conservation vessels     3
 5 Sam                  sam                      0
 6 Kelly                kelly                    0
 7 Nadia Conti          nadia conti              0
 8 Elise                elise                    0
 9 Liam Thorne          liam thorne              0
10 Samantha Blake       samantha blake           0
# ℹ 18 more rows
…
text_clean_money <- connected_node_content_money %>%
  filter(!is.na(content)) %>%
  summarise(full_text = paste(content, collapse = " ")) %>%
  mutate(full_text = str_to_lower(full_text),
         full_text = str_replace_all(full_text, "[^a-z\\s]", ""),
         full_text = str_squish(full_text))

name_freq_money <- tibble(name = people, clean_name = people_clean) %>%
  rowwise() %>%
  mutate(freq = str_count(text_clean_money$full_text, fixed(clean_name))) %>%
  arrange(desc(freq))
name_freq_money

# A tibble: 28 × 3
# Rowwise: 
   name                 clean_name            freq
   <chr>                <chr>                <int>
 1 Mrs. Money           mrs money               43
 2 The Intern           the intern              20
 3 Boss                 boss                    14
 4 The Lookout          the lookout             10
 5 The Middleman        the middleman            7
 6 Conservation Vessels conservation vessels     7
 7 V. Miesel Shipping   v miesel shipping        5
 8 Sam                  sam                      2
 9 Rodriguez            rodriguez                1
10 Kelly                kelly                    0
# ℹ 18 more rows
…
text_clean_middleman <- connected_node_content_middleman %>%
  filter(!is.na(content)) %>%
  summarise(full_text = paste(content, collapse = " ")) %>%
  mutate(full_text = str_to_lower(full_text),
         full_text = str_replace_all(full_text, "[^a-z\\s]", ""),
         full_text = str_squish(full_text))

name_freq_middleman <- tibble(name = people, clean_name = people_clean) %>%
  rowwise() %>%
  mutate(freq = str_count(text_clean_middleman$full_text, fixed(clean_name))) %>%
  arrange(desc(freq))
name_freq_middleman

# A tibble: 28 × 3
# Rowwise: 
   name                 clean_name            freq
   <chr>                <chr>                <int>
 1 Boss                 boss                    14
 2 The Middleman        the middleman           11
 3 Mrs. Money           mrs money               10
 4 The Accountant       the accountant           4
 5 Conservation Vessels conservation vessels     2
 6 Sam                  sam                      1
 7 Green Guardians      green guardians          1
 8 V. Miesel Shipping   v miesel shipping        1
 9 Kelly                kelly                    0
10 Nadia Conti          nadia conti              0
# ℹ 18 more rows
…
text_clean_boss <- connected_node_content_boss %>%
  filter(!is.na(content)) %>%
  summarise(full_text = paste(content, collapse = " ")) %>%
  mutate(full_text = str_to_lower(full_text),
         full_text = str_replace_all(full_text, "[^a-z\\s]", ""),
         full_text = str_squish(full_text))

name_freq_boss <- tibble(name = people, clean_name = people_clean) %>%
  rowwise() %>%
  mutate(freq = str_count(text_clean_boss$full_text, fixed(clean_name))) %>%
  arrange(desc(freq))
name_freq_boss

# A tibble: 28 × 3
# Rowwise: 
   name                 clean_name            freq
   <chr>                <chr>                <int>
 1 Boss                 boss                    29
 2 Mrs. Money           mrs money               12
 3 The Middleman        the middleman            9
 4 Conservation Vessels conservation vessels     5
 5 The Intern           the intern               4
 6 Rodriguez            rodriguez                3
 7 V. Miesel Shipping   v miesel shipping        3
 8 Davis                davis                    2
 9 The Accountant       the accountant           2
10 Sam                  sam                      1
# ℹ 18 more rows
…
